^C:\USERS\USER\DESKTOP\REPS\QUESTIONNAIRE\QUESTIONNAIRE\PROPERTIES\RESOURCES.RESX|C:\USERS\USER\DESKTOP\REPS\QUESTIONNAIRE\QUESTIONNAIRE\VIEW\FORMPERCENT.RESX|C:\USERS\USER\DESKTOP\REPS\QUESTIONNAIRE\QUESTIONNAIRE\VIEW\FORMQUESTIONNAIRE.RESX
C:\USERS\USER\DESKTOP\REPS\QUESTIONNAIRE\QUESTIONNAIRE\OBJ\X86\DEBUG\QUESTIONNAIRE.FORMQUESTIONNAIRE.RESOURCES
C:\USERS\USER\DESKTOP\REPS\QUESTIONNAIRE\QUESTIONNAIRE\OBJ\X86\DEBUG\QUESTIONNAIRE.FORMPERCENT.RESOURCES
C:\USERS\USER\DESKTOP\REPS\QUESTIONNAIRE\QUESTIONNAIRE\OBJ\X86\DEBUG\QUESTIONNAIRE.PROPERTIES.RESOURCES.RESOURCES
